field	hgvs	variant_id	entrez_id	value
clinvar.variant_id	chr9:g.133748283C>T	2	25	12624
cosmic.cosmic_id	chr9:g.133748283C>T	2	25	COSM12560
snpeff.ann.effect	chr9:g.133748283C>T	2	25	missense_variant
cadd.consdetail	chr9:g.133748283C>T	2	25	missense
cadd.sift.cat	chr9:g.133748283C>T	2	25	deleterious
cadd.polyphen.cat	chr9:g.133748283C>T	2	25	probably_damaging
clinvar.hgvs.coding	chr9:g.133748283C>T	2	25	NM_005157.5:c.944C>T	NM_007313.2:c.1001C>T
clinvar.omim	chr9:g.133748283C>T	2	25	189980.0001
dbsnp.rsid	chr9:g.133738363G>A	3	25	rs121913448
snpeff.ann.putative_impact	chr9:g.133738363G>A	3	25	MODERATE
cadd.sift.val	chr9:g.133738363G>A	3	25	0
dbnsfp.interpro_domain	chr9:g.133738363G>A	3	25	Protein kinase domain|Protein kinase, ATP binding site|Protein kinase-like domain|SH2 domain|Serine-threonine/tyrosine-protein kinase catalytic domain|Tyrosine-protein kinase, catalytic domain	Protein kinase domain|Protein kinase-like domain|Serine-threonine/tyrosine-protein kinase catalytic domain|Tyrosine-protein kinase, catalytic domain
clinvar.rcv.clinical_significance	chr14:g.105246551C>T	4	207	Pathogenic
cadd.consequence	chr14:g.105246551C>T	4	207	NON_SYNONYMOUS
clinvar.hgvs.genomic	chr14:g.105246551C>T	4	207	LRG_721:g.20531G>A	NC_000014.8:g.105246551C>T	NC_000014.9:g.104780214C>T	NG_012188.1:g.20531G>A
cadd.polyphen.val	chr2:g.29445258C>T	6	238	0.999
emv.egl_classification	chr7:g.140453136A>T	12	673	Pathogenic
emv.egl_protein	chr7:g.140453136A>T	12	673	p.Val600Glu | p.V600E
emv.hgvs	chr7:g.140453136A>T	12	673	NM_004333.4:c.1799T>A
emv.egl_variant	chr17:g.7577538C>T	117	7157	NM_000546.5:c.743G>A
